<?xml version="1.0" encoding="utf-8"?>
<!-- Generator: Adobe Illustrator 26.3.1, SVG Export Plug-In . SVG Version: 6.00 Build 0)  -->
<svg version="1.1" id="Layer_1" xmlns="http://www.w3.org/2000/svg" xmlns:xlink="http://www.w3.org/1999/xlink" x="0px" y="0px"
	 width="709.9px" height="526.8px" viewBox="0 0 709.9 526.8" style="enable-background:new 0 0 709.9 526.8;" xml:space="preserve"
	>
<style type="text/css">
	.st0{fill-rule:evenodd;clip-rule:evenodd;fill:#D2E3FC;}
	.st1{fill:#D2E3FC;}
	.st2{fill-rule:evenodd;clip-rule:evenodd;fill:#4682F4;}
	.st3{fill:none;stroke:#4682F4;stroke-width:8;stroke-linecap:round;}
	.st4{opacity:0.2645;fill-rule:evenodd;clip-rule:evenodd;fill:#4682F4;enable-background:new    ;}
	.st5{fill-rule:evenodd;clip-rule:evenodd;fill:#FFFFFF;}
	.st6{fill:#1BBDE2;}
	.st7{opacity:0.5;}
	.st8{fill:#148699;}
	.st9{fill:#131399;}
	.st10{fill:#1919D8;}
	.st11{fill:#FFFFFF;}
</style>
<g id="Doctopus">
	<g id="R3">
		<g id="Octopus" transform="translate(-3073.000000, -1360.000000)">
			<g id="Blue-Doctopus" transform="translate(3073.000000, 1360.000000)">
				<g id="Group-3-Copy">
					<g id="Group-4-Copy-2">
						<circle id="Oval" class="st0" cx="435.8" cy="235.3" r="164.5"/>
						<path id="Combined-Shape" class="st1" d="M566.6,337.8c-15.8,17-24.1,37.7-24.7,62.1c-0.6,24,9.5,41,30.4,51
							c6.3,1,10.8-0.1,14.5-2.9c1.6-1.2,3-2.6,4.1-4.2c0.4-0.6,0.7-1.2,1-1.6l0,0l0.1-0.2c1.2-4.4,1.3-7.7,0.2-10.4l0,0h-0.4
							c-7.8,0.7-15.6-3.2-19.5-10.5c-5.2-9.7-1.5-21.9,8.2-27.1c15.8-8.5,31.9-2.8,42.7,11.7c6.1,8.3,9.2,17.5,9.7,27.2
							c0.3,7-0.6,13.4-2.5,20.1c-2.6,9.2-9.9,19.7-19.8,26.9c-13.2,9.7-30,13.5-48.6,9.4c-13.8-3-25-8.8-34.1-17.2
							c-7.2-6.6-12.4-14-17.6-23.8l0,0l-0.2-0.4c-0.7-1.3-1.4-2.7-2.3-4.4l0,0l-2.1-4.1l-0.7-1.3l-0.9-1.8
							c-6.2-12.1-11.4-29.8-16-53.6l0,0l-0.4-2.1l-0.4-2c-1.4-7.5,1.6-14.9,7.3-19.3c-0.2-4.3-0.4-8.9-0.6-13.8l0,0L566.6,337.8z"/>
						<path id="Combined-Shape_00000096778080495253818560000003990752061023956156_" class="st1" d="M573,176.1
							c11.3,2.3,18.7,13.3,16.4,24.6c-5,24.8-8.1,45.4-9.5,61.6l20.5-12.2c-5.3,31.9-5,53.6,0.9,65c3.8,7.3,15,7.8,26.8,7.2
							c1.2-0.2,2.5-0.4,3.8-0.7l0.8-0.2l6.5-1.4c0.6-0.1,1.1-0.2,1.6-0.3l0.5-0.1l1-0.2l0.9-0.2c3.9-0.7,7.3-1.1,10.7-1.2
							c5.3-0.2,10.4,0.3,15.5,1.6c26.9,7.2,42.4,26.9,40.2,56.1c-1.1,15.5-8.2,27.6-19.5,34.9c-8.2,5.3-17.7,7.4-26.4,7.1
							c-9.6-0.3-18.8-4.2-28-10.8c-9.4-6.7-11.5-19.8-4.8-29.2c6.7-9.3,19.6-11.5,28.9-5l0.3,0.2l0.4,0.3c1.7,1.2,3.1,2,4.2,2.4
							c0.3,0.1,0.5,0.2,0.7,0.3c0.6,0,1.3-0.2,1.8-0.3l0.1-0.1l0.1-0.2l0.1-0.3c0.2-0.6,0.3-1.4,0.4-2.4c0.6-7.9-0.9-10.2-8.2-12.3
							l-0.3-0.1l-0.7-0.2c-0.8-0.2-1.8-0.3-3.1-0.3c-1.6,0.1-1.9,0-4.4,0.5l-0.3,0.1l-1.3,0.2l-5.1,1c-10.3,7-25.2,12.4-45.4,14
							c-24,1.9-37.9-6-45.8-15l-14.9,7.3l-7.9-16.2l13.9-6.8c-1.1-3.5-1.5-6.1-1.7-6.8c-1.3-8.8-2.4-19.7-3.1-32.8l-0.1-0.4
							c-4.8-21.2-2.2-55.5,7.3-104.8l0.3-1.5l0.6-3.1l0.6-3.2C550.6,181.2,561.6,173.9,573,176.1z"/>
						<path id="Combined-Shape_00000057860154556050374170000016382538852325162397_" class="st1" d="M313.8,251.8l0.7,4l0.5,2.8
							c4.8,30,6.5,50,5,62l-0.1,1l-0.1,1c-0.1,0.7-0.2,1.5-0.2,2.4l-0.5,5.1c-0.2,1.9-0.4,3.7-0.5,5.4l12.6,9.8
							c-10.7,32.7-26.3,50.7-47,54c-11.9,1.9-24.2,2.1-32,0c-0.7-0.2-1.4-0.4-2.2-0.7c-6.4-1.8-12.7-5-18.7-9.7
							c-1.2-1-2.3-2-3.3-3.2l-1-1.2l-1-1.2c-6-7.1-11.1-12.3-15.2-15.6c-1.3-1-2.4-1.8-3.2-2.3l-0.2-0.1c-1.4,0-2.7,0.1-3.7,0.3
							c0.2,0.5,0.5,1.1,0.8,1.7l0.2,0.4c5.3,10.3,1.3,23-9,28.3c-10.3,5.3-23,1.3-28.3-9c-7.1-13.7-8.9-27.2-3.5-39.7
							c4.2-9.8,12-16.6,21.8-20.3c7-2.6,14.6-3.6,23.5-3.6c9.7,0,18.7,4.2,27.9,11.6c3.7,3,7.6,6.5,11.6,10.8
							c9.4,7,16.6,8.2,21.5,3.6c1.9-1.8,3.6-4.7,5.1-8.5c0.7-3.2,1.3-7,1.8-12.1l0.7-7.7l0.1-1.2l0.1-1.1c0.1-0.9,0.2-1.8,0.3-2.6
							l0.1-0.5c1-7.2-0.9-26.9-5.9-56.8c-1.9-11.4,5.8-22.3,17.3-24.2C301.1,232.7,311.9,240.4,313.8,251.8z"/>
						<path id="Combined-Shape_00000044144815803639111740000000811975684224921736_" class="st1" d="M396.5,367l6.3,0.4
							c2.5,29.2,1.1,49.4-4,60.7c-0.6,1.3-1.2,2.6-2,3.8c-8.5,22.8-39.9,38.2-65.8,30c-8.4-2.6-14.9-6.1-21.5-10.9l-0.7-0.5
							c-1.6-1.2-6.2-4.7-6-4.6l-0.6-0.5c-2.7-2-4.1-2.7-6.1-3.1c-2.5-0.5-4.4-0.7-5.8-0.7h-0.4h-0.3c-0.3,0-0.5,0.1-0.6,0.1l0,0
							c0,0-0.1,0-0.3,0.3c-0.7,0.7-1.5,2-2.4,4c-1.5,3.3-1.4,5.3,0.9,8.6l0.2,0.3c6.4,9,4.3,21.5-4.6,27.9c-9,6.4-21.5,4.3-27.9-4.6
							c-10.8-15.1-12.6-32.5-4.8-49.1c10.8-23.1,29.4-31.1,54-26.2c4.4,0.9,8.2,2.1,11.8,3.9l-0.1-0.1c10.3,5.2,19.5,5.8,27.5,1.8
							s6.9-19.1-3.4-45.3l20.8,1.3c3.3-5.6,9.1-9.5,16.1-9.9C385.6,354.3,393.3,359.4,396.5,367z"/>
						<path id="Combined-Shape_00000064341666080534562670000017450356088125134209_" class="st1" d="M463.2,348.8
							c13,0.2,23.3,10.9,23.1,23.9c-0.9,48.9-7.1,85.2-19.5,109.8c-9.5,18.9-22.9,31.5-38.8,38.4c-6.2,2.7-12.5,4.3-18.9,5.2
							c-4.4,0.6-7.7,0.7-12.3,0.7c-11.8,0-22.9-4.6-33.4-12.8c-10.2-8-12.1-22.8-4.1-33c7.9-10.1,22.5-12,32.7-4.3l0.3,0.2
							c1.6,1.3,3,2.1,4.1,2.6l0.2,0.1c0.2,0.1,0.3,0.1,0.4,0.2h0.1c5.4,0,8.7-0.5,12.5-2.1c5.7-2.4,10.8-7.3,15.4-16.3
							c1.6-3.2,3.1-6.8,4.4-10.9c0.8-3.6,1.4-7.4,1.7-11.5c1.3-17.5-6-34.2-21.8-50l29.6-3.1c0.2-4.5,0.3-9.2,0.4-14.1
							C439.5,358.9,450.2,348.6,463.2,348.8z"/>
						<g id="Group" transform="translate(290.000000, 145.000000)">
						</g>
						<g id="Group-Copy" transform="translate(180.184870, 145.000000)">
						</g>
					</g>
				</g>
				<circle id="Oval-Copy-2" class="st2" cx="465.8" cy="230.3" r="15"/>
				<circle id="Oval-Copy-3" class="st2" cx="356.1" cy="230.3" r="15"/>
				<path id="Path-6-Copy" class="st3" d="M386.3,284.3l6.6,3.4c13.9,7.1,30.7,5.8,43.4-3.4l0,0l0,0"/>
				<circle id="Oval-Copy-4" class="st4" cx="500.3" cy="288.3" r="29"/>
				<circle id="Oval-Copy-5" class="st4" cx="322.3" cy="284.3" r="29"/>
				<path id="Oval-Copy-6" class="st5" d="M319.5,145.9c1.5,1.2,4.5-0.1,6.7-2.8c2.2-2.7,9.6-13.7,8-14.9
					c-1.5-1.2-11.4,7.8-13.6,10.5C318.5,141.5,318,144.7,319.5,145.9z"/>
			</g>
		</g>
	</g>
</g>
<g>
	<path class="st6" d="M217.4,173.8c-1.7-2.7-3.3-4.7-4.8-7.5c1.3,2.5,2.7,5,4.3,7.4L217.4,173.8z"/>
	<g class="st7">
		<g>
			<path class="st8" d="M53.8,190.8c0.9-2.8,0.4-5.9-1.2-8.4C44,169.5,39.4,154.6,39.4,139c0-43,35-78,77.9-78c43,0,78,35,78,77.9
				c0,43-35,78-78,78c-13.3,0-26.4-3.4-37.9-9.8c-1.5-0.8-3.1-1.2-4.8-1.2c-1,0-2,0.2-2.9,0.5L52,212.6l-9.6,2.4
				c1.5-2.4,3-4.9,4.3-7.4C49.6,202.2,52,196.6,53.8,190.8z"/>
			<path class="st9" d="M1.2,240c1.8,3.3,5.2,5.2,8.7,5.2c1,0,2-0.2,2.9-0.5l57.3-20.3c0.6-0.2,1.2-0.2,1.8,0.1
				c4.2,2.2,23.4,11.7,45.5,12.1c42.2,0.7,77.7-25.7,91.3-63.3c2.6-8.8,6.4-28.3,6.3-35c-0.3-55-46.3-99.4-101.9-97
				C68,43.3,25.3,83,20.3,127.9C18,149.1,22.4,170,32.9,188c0.4,0.7,0.4,1.5,0,2.2c-3.1,5.2-16.9,27.6-29.2,37.6
				C0,230.7-1.1,235.9,1.2,240z M52.6,182.4C44,169.5,39.4,154.6,39.4,139c0-43,35-78,77.9-78c43,0,78,35,78,77.9c0,43-35,78-78,78
				c-13.3,0-26.4-3.4-37.9-9.8c-1.5-0.8-3.1-1.2-4.8-1.2c-1,0-2,0.2-2.9,0.5L52,212.6l-9.6,2.4l-0.5,0.1c1.7-2.7,3.3-4.7,4.8-7.5
				c2.9-5.4,5.3-11.1,7.1-16.9C54.7,187.9,54.2,184.8,52.6,182.4z"/>
		</g>
		<g>
			<path class="st6" d="M205.5,149.4c-0.9-2.8-0.4-5.9,1.2-8.4c8.6-12.9,13.2-27.8,13.2-43.3c0-43-35-78-77.9-78
				c-43,0-78,35-78,77.9c0,43,35,78,78,78c13.3,0,26.4-3.4,37.9-9.8c1.5-0.8,3.1-1.2,4.8-1.2c1,0,2,0.2,2.9,0.5l19.7,6.2l9.6,2.4
				c-1.5-2.4-3-4.9-4.3-7.4C209.7,160.9,207.3,155.2,205.5,149.4z"/>
			<path class="st10" d="M255.6,186.4c-12.4-10-26.2-32.3-29.2-37.6c-0.4-0.7-0.4-1.5,0-2.2c10.5-18,14.9-38.9,12.6-60.1
				C234,41.7,191.3,2,146.2,0.1c-55.6-2.4-101.7,42-101.9,97c0,6.7,3.7,26.2,6.3,35c13.6,37.5,49.1,64,91.3,63.3
				c22.1-0.4,41.4-9.9,45.5-12.1c0.6-0.3,1.2-0.3,1.8-0.1l57.3,20.3c1,0.3,2,0.5,2.9,0.5c3.5,0,6.9-1.9,8.7-5.2
				C260.3,194.6,259.3,189.4,255.6,186.4z M205.5,149.4c1.8,5.8,4.2,11.4,7.1,16.9c1.5,2.8,3,4.8,4.8,7.5l-0.5-0.1l-9.6-2.4
				l-19.7-6.2c-1-0.3-2-0.5-2.9-0.5c-1.7,0-3.3,0.4-4.8,1.2c-11.5,6.5-24.6,9.8-37.9,9.8c-43,0-78-35-78-78c0-43,35-77.9,78-77.9
				c43,0,77.9,35,77.9,78c0,15.5-4.6,30.5-13.2,43.3C205,143.5,204.6,146.6,205.5,149.4z"/>
		</g>
	</g>
</g>
<g>
	<path class="st11" d="M141.7,61c8.6,0,15.5,7.4,14.6,16.1c-0.7,7.6-7.6,13.2-15.3,13.2h-4.7c-2.5,0-4.5,2-4.5,4.5v21.9
		c0,2.5,2,4.5,4.5,4.5h10.7c2.5,0,4.5-2,4.5-4.5v-5c0-1.8,1.1-3.4,2.7-4.1c12.8-5,21.8-17.5,21.8-32c0-18.9-15.4-34.4-34.4-34.4
		c-17.2,0-31.4,12.6-34,29.1c-0.4,2.7,1.7,5.2,4.4,5.2h10.7c2.1,0,4-1.3,4.5-3.4C129,65.9,134.8,61,141.7,61z"/>
	<path class="st11" d="M132,141.9c0,2.4,2,4.4,4.5,4.4l10.9-0.1c2.4-0.1,4.4-2,4.4-4.5V131c0-2.5-2-4.5-4.5-4.5l-10.9,0.1
		c-2.5,0-4.4,2.1-4.4,4.5L132,141.9z"/>
</g>
</svg>
